{
  "2nde": {
    "Calculs numériques": {
      "Fractions": {
        "2nd_fractions_001": {
          "difficulte": "1",
          "titre": "Valeur décimale de fractions",
          "uuid": "2nd_fractions_001",
          "typeExercice": "static"
        },
        "2nd_fractions_002": {
          "difficulte": "1",
          "uuid": "2nd_fractions_002",
          "typeExercice": "static"
        },
        "2nd_fractions_003": {
          "difficulte": "1",
          "uuid": "2nd_fractions_003",
          "typeExercice": "static"
        },
        "2nd_fractions_004": {
          "difficulte": "1",
          "uuid": "2nd_fractions_004",
          "typeExercice": "static"
        },
        "2nd_fractions_005": {
          "difficulte": "1",
          "uuid": "2nd_fractions_005",
          "typeExercice": "static"
        },
        "2nd_fractions_006": {
          "difficulte": "1",
          "uuid": "2nd_fractions_006",
          "typeExercice": "static"
        },
        "2nd_fractions_007": {
          "difficulte": "1",
          "uuid": "2nd_fractions_007",
          "typeExercice": "static"
        },
        "2nd_fractions_008": {
          "difficulte": "1",
          "uuid": "2nd_fractions_008",
          "typeExercice": "static"
        },
        "2nd_fractions_009": {
          "difficulte": "1",
          "uuid": "2nd_fractions_009",
          "typeExercice": "static"
        },
        "2nd_fractions_010": {
          "difficulte": "2",
          "uuid": "2nd_fractions_010",
          "typeExercice": "static"
        },
        "2nd_fractions_011": {
          "difficulte": "2",
          "uuid": "2nd_fractions_011",
          "typeExercice": "static"
        },
        "2nd_fractions_012": {
          "difficulte": "2",
          "uuid": "2nd_fractions_012",
          "png": "static/2nde/calculs_numeriques/fractions/png/fractions_012_enonce.png",
          "tex": "static/2nde/calculs_numeriques/fractions/tex/fractions_012_enonce.tex",
          "texReponse": "static/2nde/calculs_numeriques/fractions/tex/fractions_012_reponse.tex",
          "pngReponse": "static/2nde/calculs_numeriques/fractions/png/fractions_012_reponse.png",
          "texIndice": "static/2nde/calculs_numeriques/fractions/tex/fractions_012_indice.tex",
          "pngIndice": "static/2nde/calculs_numeriques/fractions/png/fractions_012_indice.png",
          "texCor": "static/2nde/calculs_numeriques/fractions/tex/fractions_012_solution.tex",
          "pngCor": "static/2nde/calculs_numeriques/fractions/png/fractions_012_solution.png",
          "typeExercice": "static"
        },
        "2nd_fractions_013": {
          "difficulte": "2",
          "uuid": "2nd_fractions_013",
          "typeExercice": "static"
        },
        "2nd_fractions_014": {
          "difficulte": "2",
          "uuid": "2nd_fractions_014",
          "typeExercice": "static"
        },
        "2nd_fractions_015": {
          "difficulte": "2",
          "uuid": "2nd_fractions_015",
          "png": "static/2nde/calculs_numeriques/fractions/png/fractions_015_enonce.png",
          "tex": "static/2nde/calculs_numeriques/fractions/tex/fractions_015_enonce.tex",
          "texReponse": "static/2nde/calculs_numeriques/fractions/tex/fractions_015_reponse.tex",
          "pngReponse": "static/2nde/calculs_numeriques/fractions/png/fractions_015_reponse.png",
          "texIndice": "static/2nde/calculs_numeriques/fractions/tex/fractions_015_indice.tex",
          "pngIndice": "static/2nde/calculs_numeriques/fractions/png/fractions_015_indice.png",
          "texCor": "static/2nde/calculs_numeriques/fractions/tex/fractions_015_solution.tex",
          "pngCor": "static/2nde/calculs_numeriques/fractions/png/fractions_015_solution.png",
          "typeExercice": "static"
        },
        "2nd_fractions_016": {
          "difficulte": "2",
          "uuid": "2nd_fractions_016",
          "png": "static/2nde/calculs_numeriques/fractions/png/fractions_016_enonce.png",
          "tex": "static/2nde/calculs_numeriques/fractions/tex/fractions_016_enonce.tex",
          "texReponse": "static/2nde/calculs_numeriques/fractions/tex/fractions_016_reponse.tex",
          "pngReponse": "static/2nde/calculs_numeriques/fractions/png/fractions_016_reponse.png",
          "texIndice": "static/2nde/calculs_numeriques/fractions/tex/fractions_016_indice.tex",
          "pngIndice": "static/2nde/calculs_numeriques/fractions/png/fractions_016_indice.png",
          "texCor": "static/2nde/calculs_numeriques/fractions/tex/fractions_016_solution.tex",
          "pngCor": "static/2nde/calculs_numeriques/fractions/png/fractions_016_solution.png",
          "typeExercice": "static"
        },
        "2nd_fractions_017": {
          "difficulte": "2",
          "uuid": "2nd_fractions_017",
          "png": "static/2nde/calculs_numeriques/fractions/png/fractions_017_enonce.png",
          "tex": "static/2nde/calculs_numeriques/fractions/tex/fractions_017_enonce.tex",
          "texReponse": "static/2nde/calculs_numeriques/fractions/tex/fractions_017_reponse.tex",
          "pngReponse": "static/2nde/calculs_numeriques/fractions/png/fractions_017_reponse.png",
          "texIndice": "static/2nde/calculs_numeriques/fractions/tex/fractions_017_indice.tex",
          "pngIndice": "static/2nde/calculs_numeriques/fractions/png/fractions_017_indice.png",
          "texCor": "static/2nde/calculs_numeriques/fractions/tex/fractions_017_solution.tex",
          "pngCor": "static/2nde/calculs_numeriques/fractions/png/fractions_017_solution.png",
          "typeExercice": "static"
        },
        "2nd_fractions_019": {
          "difficulte": "2",
          "uuid": "2nd_fractions_019",
          "png": "static/2nde/calculs_numeriques/fractions/png/fractions_019_enonce.png",
          "tex": "static/2nde/calculs_numeriques/fractions/tex/fractions_019_enonce.tex",
          "texReponse": "static/2nde/calculs_numeriques/fractions/tex/fractions_019_reponse.tex",
          "pngReponse": "static/2nde/calculs_numeriques/fractions/png/fractions_019_reponse.png",
          "texIndice": "static/2nde/calculs_numeriques/fractions/tex/fractions_019_indice.tex",
          "pngIndice": "static/2nde/calculs_numeriques/fractions/png/fractions_019_indice.png",
          "typeExercice": "static"
        },
        "2nd_fractions_020": {
          "difficulte": "2",
          "uuid": "2nd_fractions_020",
          "png": "static/2nde/calculs_numeriques/fractions/png/fractions_020_enonce.png",
          "tex": "static/2nde/calculs_numeriques/fractions/tex/fractions_020_enonce.tex",
          "texReponse": "static/2nde/calculs_numeriques/fractions/tex/fractions_020_reponse.tex",
          "pngReponse": "static/2nde/calculs_numeriques/fractions/png/fractions_020_reponse.png",
          "texIndice": "static/2nde/calculs_numeriques/fractions/tex/fractions_020_indice.tex",
          "pngIndice": "static/2nde/calculs_numeriques/fractions/png/fractions_020_indice.png",
          "texCor": "static/2nde/calculs_numeriques/fractions/tex/fractions_020_solution.tex",
          "pngCor": "static/2nde/calculs_numeriques/fractions/png/fractions_020_solution.png",
          "typeExercice": "static"
        },
        "2nd_fractions_021": {
          "difficulte": "2",
          "uuid": "2nd_fractions_021",
          "png": "static/2nde/calculs_numeriques/fractions/png/fractions_021_enonce.png",
          "tex": "static/2nde/calculs_numeriques/fractions/tex/fractions_021_enonce.tex",
          "texReponse": "static/2nde/calculs_numeriques/fractions/tex/fractions_021_reponse.tex",
          "pngReponse": "static/2nde/calculs_numeriques/fractions/png/fractions_021_reponse.png",
          "texIndice": "static/2nde/calculs_numeriques/fractions/tex/fractions_021_indice.tex",
          "pngIndice": "static/2nde/calculs_numeriques/fractions/png/fractions_021_indice.png",
          "texCor": "static/2nde/calculs_numeriques/fractions/tex/fractions_021_solution.tex",
          "pngCor": "static/2nde/calculs_numeriques/fractions/png/fractions_021_solution.png",
          "typeExercice": "static"
        },
        "2nd_fractions_018": {
          "difficulte": "3",
          "uuid": "2nd_fractions_018",
          "png": "static/2nde/calculs_numeriques/fractions/png/fractions_018_enonce.png",
          "tex": "static/2nde/calculs_numeriques/fractions/tex/fractions_018_enonce.tex",
          "texReponse": "static/2nde/calculs_numeriques/fractions/tex/fractions_018_reponse.tex",
          "pngReponse": "static/2nde/calculs_numeriques/fractions/png/fractions_018_reponse.png",
          "texIndice": "static/2nde/calculs_numeriques/fractions/tex/fractions_018_indice.tex",
          "pngIndice": "static/2nde/calculs_numeriques/fractions/png/fractions_018_indice.png",
          "texCor": "static/2nde/calculs_numeriques/fractions/tex/fractions_018_solution.tex",
          "pngCor": "static/2nde/calculs_numeriques/fractions/png/fractions_018_solution.png",
          "typeExercice": "static"
        }
      },
      "Puissances": {
        "2nd_puissances_001": {
          "difficulte": "1",
          "titre": "Notation scientifique",
          "uuid": "2nd_puissances_001",
          "png": "static/2nde/calculs_numeriques/puissances/png/puissances_001_enonce.png",
          "tex": "static/2nde/calculs_numeriques/puissances/tex/puissances_001_enonce.tex",
          "texReponse": "static/2nde/calculs_numeriques/puissances/tex/puissances_001_reponse.tex",
          "pngReponse": "static/2nde/calculs_numeriques/puissances/png/puissances_001_reponse.png",
          "texIndice": "static/2nde/calculs_numeriques/puissances/tex/puissances_001_indice.tex",
          "pngIndice": "static/2nde/calculs_numeriques/puissances/png/puissances_001_indice.png",
          "typeExercice": "static"
        },
        "2nd_puissances_002": {
          "difficulte": "1",
          "titre": "Conversion",
          "uuid": "2nd_puissances_002",
          "png": "static/2nde/calculs_numeriques/puissances/png/puissances_002_enonce.png",
          "tex": "static/2nde/calculs_numeriques/puissances/tex/puissances_002_enonce.tex",
          "texReponse": "static/2nde/calculs_numeriques/puissances/tex/puissances_002_reponse.tex",
          "pngReponse": "static/2nde/calculs_numeriques/puissances/png/puissances_002_reponse.png",
          "texIndice": "static/2nde/calculs_numeriques/puissances/tex/puissances_002_indice.tex",
          "pngIndice": "static/2nde/calculs_numeriques/puissances/png/puissances_002_indice.png",
          "typeExercice": "static"
        },
        "2nd_puissances_003": {
          "difficulte": "1",
          "titre": "Valeur décimale",
          "uuid": "2nd_puissances_003",
          "png": "static/2nde/calculs_numeriques/puissances/png/puissances_003_enonce.png",
          "tex": "static/2nde/calculs_numeriques/puissances/tex/puissances_003_enonce.tex",
          "texReponse": "static/2nde/calculs_numeriques/puissances/tex/puissances_003_reponse.tex",
          "pngReponse": "static/2nde/calculs_numeriques/puissances/png/puissances_003_reponse.png",
          "texIndice": "static/2nde/calculs_numeriques/puissances/tex/puissances_003_indice.tex",
          "pngIndice": "static/2nde/calculs_numeriques/puissances/png/puissances_003_indice.png",
          "typeExercice": "static"
        },
        "2nd_puissances_004": {
          "difficulte": "1",
          "titre": "Préfixe",
          "uuid": "2nd_puissances_004",
          "png": "static/2nde/calculs_numeriques/puissances/png/puissances_004_enonce.png",
          "tex": "static/2nde/calculs_numeriques/puissances/tex/puissances_004_enonce.tex",
          "texReponse": "static/2nde/calculs_numeriques/puissances/tex/puissances_004_reponse.tex",
          "pngReponse": "static/2nde/calculs_numeriques/puissances/png/puissances_004_reponse.png",
          "texIndice": "static/2nde/calculs_numeriques/puissances/tex/puissances_004_indice.tex",
          "pngIndice": "static/2nde/calculs_numeriques/puissances/png/puissances_004_indice.png",
          "typeExercice": "static"
        },
        "2nd_puissances_005": {
          "difficulte": "1",
          "titre": "Notation scientifique",
          "uuid": "2nd_puissances_005",
          "png": "static/2nde/calculs_numeriques/puissances/png/puissances_005_enonce.png",
          "tex": "static/2nde/calculs_numeriques/puissances/tex/puissances_005_enonce.tex",
          "texReponse": "static/2nde/calculs_numeriques/puissances/tex/puissances_005_reponse.tex",
          "pngReponse": "static/2nde/calculs_numeriques/puissances/png/puissances_005_reponse.png",
          "texIndice": "static/2nde/calculs_numeriques/puissances/tex/puissances_005_indice.tex",
          "pngIndice": "static/2nde/calculs_numeriques/puissances/png/puissances_005_indice.png",
          "typeExercice": "static"
        },
        "2nd_puissances_006": {
          "difficulte": "1",
          "titre": "Propriétés puissances de 10",
          "uuid": "2nd_puissances_006",
          "png": "static/2nde/calculs_numeriques/puissances/png/puissances_006_enonce.png",
          "tex": "static/2nde/calculs_numeriques/puissances/tex/puissances_006_enonce.tex",
          "texReponse": "static/2nde/calculs_numeriques/puissances/tex/puissances_006_reponse.tex",
          "pngReponse": "static/2nde/calculs_numeriques/puissances/png/puissances_006_reponse.png",
          "texIndice": "static/2nde/calculs_numeriques/puissances/tex/puissances_006_indice.tex",
          "pngIndice": "static/2nde/calculs_numeriques/puissances/png/puissances_006_indice.png",
          "typeExercice": "static"
        },
        "2nd_puissances_007": {
          "difficulte": "1",
          "titre": "Valeur décimale",
          "uuid": "2nd_puissances_007",
          "png": "static/2nde/calculs_numeriques/puissances/png/puissances_007_enonce.png",
          "tex": "static/2nde/calculs_numeriques/puissances/tex/puissances_007_enonce.tex",
          "texReponse": "static/2nde/calculs_numeriques/puissances/tex/puissances_007_reponse.tex",
          "pngReponse": "static/2nde/calculs_numeriques/puissances/png/puissances_007_reponse.png",
          "texIndice": "static/2nde/calculs_numeriques/puissances/tex/puissances_007_indice.tex",
          "pngIndice": "static/2nde/calculs_numeriques/puissances/png/puissances_007_indice.png",
          "typeExercice": "static"
        },
        "2nd_puissances_008": {
          "difficulte": "1",
          "titre": ": Signes et puissances",
          "uuid": "2nd_puissances_008",
          "png": "static/2nde/calculs_numeriques/puissances/png/puissances_008_enonce.png",
          "tex": "static/2nde/calculs_numeriques/puissances/tex/puissances_008_enonce.tex",
          "texReponse": "static/2nde/calculs_numeriques/puissances/tex/puissances_008_reponse.tex",
          "pngReponse": "static/2nde/calculs_numeriques/puissances/png/puissances_008_reponse.png",
          "texIndice": "static/2nde/calculs_numeriques/puissances/tex/puissances_008_indice.tex",
          "pngIndice": "static/2nde/calculs_numeriques/puissances/png/puissances_008_indice.png",
          "typeExercice": "static"
        },
        "2nd_puissances_009": {
          "difficulte": "1",
          "titre": ": Écriture décimale ou fractionnaire d'une puissance",
          "uuid": "2nd_puissances_009",
          "png": "static/2nde/calculs_numeriques/puissances/png/puissances_009_enonce.png",
          "tex": "static/2nde/calculs_numeriques/puissances/tex/puissances_009_enonce.tex",
          "texReponse": "static/2nde/calculs_numeriques/puissances/tex/puissances_009_reponse.tex",
          "pngReponse": "static/2nde/calculs_numeriques/puissances/png/puissances_009_reponse.png",
          "texIndice": "static/2nde/calculs_numeriques/puissances/tex/puissances_009_indice.tex",
          "pngIndice": "static/2nde/calculs_numeriques/puissances/png/puissances_009_indice.png",
          "typeExercice": "static"
        },
        "2nd_puissances_010": {
          "difficulte": "1",
          "titre": "Premiers calculs avec les puissances",
          "uuid": "2nd_puissances_010",
          "png": "static/2nde/calculs_numeriques/puissances/png/puissances_010_enonce.png",
          "tex": "static/2nde/calculs_numeriques/puissances/tex/puissances_010_enonce.tex",
          "texReponse": "static/2nde/calculs_numeriques/puissances/tex/puissances_010_reponse.tex",
          "pngReponse": "static/2nde/calculs_numeriques/puissances/png/puissances_010_reponse.png",
          "texIndice": "static/2nde/calculs_numeriques/puissances/tex/puissances_010_indice.tex",
          "pngIndice": "static/2nde/calculs_numeriques/puissances/png/puissances_010_indice.png",
          "typeExercice": "static"
        },
        "2nd_puissances_014": {
          "difficulte": "1",
          "titre": "Ecriture décimale",
          "uuid": "2nd_puissances_014",
          "png": "static/2nde/calculs_numeriques/puissances/png/puissances_014_enonce.png",
          "tex": "static/2nde/calculs_numeriques/puissances/tex/puissances_014_enonce.tex",
          "texReponse": "static/2nde/calculs_numeriques/puissances/tex/puissances_014_reponse.tex",
          "pngReponse": "static/2nde/calculs_numeriques/puissances/png/puissances_014_reponse.png",
          "typeExercice": "static"
        },
        "2nd_puissances_015": {
          "difficulte": "1",
          "titre": "Disque dur",
          "uuid": "2nd_puissances_015",
          "png": "static/2nde/calculs_numeriques/puissances/png/puissances_015_enonce.png",
          "tex": "static/2nde/calculs_numeriques/puissances/tex/puissances_015_enonce.tex",
          "texReponse": "static/2nde/calculs_numeriques/puissances/tex/puissances_015_reponse.tex",
          "pngReponse": "static/2nde/calculs_numeriques/puissances/png/puissances_015_reponse.png",
          "texIndice": "static/2nde/calculs_numeriques/puissances/tex/puissances_015_indice.tex",
          "pngIndice": "static/2nde/calculs_numeriques/puissances/png/puissances_015_indice.png",
          "texCor": "static/2nde/calculs_numeriques/puissances/tex/puissances_015_solution.tex",
          "pngCor": "static/2nde/calculs_numeriques/puissances/png/puissances_015_solution.png",
          "typeExercice": "static"
        },
        "2nd_puissances_016": {
          "difficulte": "1",
          "titre": "Electricité",
          "uuid": "2nd_puissances_016",
          "png": "static/2nde/calculs_numeriques/puissances/png/puissances_016_enonce.png",
          "tex": "static/2nde/calculs_numeriques/puissances/tex/puissances_016_enonce.tex",
          "texReponse": "static/2nde/calculs_numeriques/puissances/tex/puissances_016_reponse.tex",
          "pngReponse": "static/2nde/calculs_numeriques/puissances/png/puissances_016_reponse.png",
          "texIndice": "static/2nde/calculs_numeriques/puissances/tex/puissances_016_indice.tex",
          "pngIndice": "static/2nde/calculs_numeriques/puissances/png/puissances_016_indice.png",
          "typeExercice": "static"
        },
        "2nd_puissances_017": {
          "difficulte": "1",
          "uuid": "2nd_puissances_017",
          "png": "static/2nde/calculs_numeriques/puissances/png/puissances_017_enonce.png",
          "tex": "static/2nde/calculs_numeriques/puissances/tex/puissances_017_enonce.tex",
          "texReponse": "static/2nde/calculs_numeriques/puissances/tex/puissances_017_reponse.tex",
          "pngReponse": "static/2nde/calculs_numeriques/puissances/png/puissances_017_reponse.png",
          "texIndice": "static/2nde/calculs_numeriques/puissances/tex/puissances_017_indice.tex",
          "pngIndice": "static/2nde/calculs_numeriques/puissances/png/puissances_017_indice.png",
          "texCor": "static/2nde/calculs_numeriques/puissances/tex/puissances_017_solution.tex",
          "pngCor": "static/2nde/calculs_numeriques/puissances/png/puissances_017_solution.png",
          "typeExercice": "static"
        },
        "2nd_puissances_018": {
          "difficulte": "1",
          "titre": "Lumière",
          "uuid": "2nd_puissances_018",
          "png": "static/2nde/calculs_numeriques/puissances/png/puissances_018_enonce.png",
          "tex": "static/2nde/calculs_numeriques/puissances/tex/puissances_018_enonce.tex",
          "texReponse": "static/2nde/calculs_numeriques/puissances/tex/puissances_018_reponse.tex",
          "pngReponse": "static/2nde/calculs_numeriques/puissances/png/puissances_018_reponse.png",
          "texIndice": "static/2nde/calculs_numeriques/puissances/tex/puissances_018_indice.tex",
          "pngIndice": "static/2nde/calculs_numeriques/puissances/png/puissances_018_indice.png",
          "texCor": "static/2nde/calculs_numeriques/puissances/tex/puissances_018_solution.tex",
          "pngCor": "static/2nde/calculs_numeriques/puissances/png/puissances_018_solution.png",
          "typeExercice": "static"
        },
        "2nd_puissances_020": {
          "difficulte": "1",
          "titre": "Exposant négatif",
          "uuid": "2nd_puissances_020",
          "png": "static/2nde/calculs_numeriques/puissances/png/puissances_020_enonce.png",
          "tex": "static/2nde/calculs_numeriques/puissances/tex/puissances_020_enonce.tex",
          "texReponse": "static/2nde/calculs_numeriques/puissances/tex/puissances_020_reponse.tex",
          "pngReponse": "static/2nde/calculs_numeriques/puissances/png/puissances_020_reponse.png",
          "texCor": "static/2nde/calculs_numeriques/puissances/tex/puissances_020_solution.tex",
          "pngCor": "static/2nde/calculs_numeriques/puissances/png/puissances_020_solution.png",
          "typeExercice": "static"
        },
        "2nd_puissances_021": {
          "difficulte": "1",
          "titre": "infiniment petit",
          "uuid": "2nd_puissances_021",
          "png": "static/2nde/calculs_numeriques/puissances/png/puissances_021_enonce.png",
          "tex": "static/2nde/calculs_numeriques/puissances/tex/puissances_021_enonce.tex",
          "texReponse": "static/2nde/calculs_numeriques/puissances/tex/puissances_021_reponse.tex",
          "pngReponse": "static/2nde/calculs_numeriques/puissances/png/puissances_021_reponse.png",
          "texIndice": "static/2nde/calculs_numeriques/puissances/tex/puissances_021_indice.tex",
          "pngIndice": "static/2nde/calculs_numeriques/puissances/png/puissances_021_indice.png",
          "texCor": "static/2nde/calculs_numeriques/puissances/tex/puissances_021_solution.tex",
          "pngCor": "static/2nde/calculs_numeriques/puissances/png/puissances_021_solution.png",
          "typeExercice": "static"
        },
        "2nd_puissances_022": {
          "difficulte": "1",
          "titre": "Avec des lettres !",
          "uuid": "2nd_puissances_022",
          "png": "static/2nde/calculs_numeriques/puissances/png/puissances_022_enonce.png",
          "tex": "static/2nde/calculs_numeriques/puissances/tex/puissances_022_enonce.tex",
          "texReponse": "static/2nde/calculs_numeriques/puissances/tex/puissances_022_reponse.tex",
          "pngReponse": "static/2nde/calculs_numeriques/puissances/png/puissances_022_reponse.png",
          "texIndice": "static/2nde/calculs_numeriques/puissances/tex/puissances_022_indice.tex",
          "pngIndice": "static/2nde/calculs_numeriques/puissances/png/puissances_022_indice.png",
          "texCor": "static/2nde/calculs_numeriques/puissances/tex/puissances_022_solution.tex",
          "pngCor": "static/2nde/calculs_numeriques/puissances/png/puissances_022_solution.png",
          "typeExercice": "static"
        },
        "2nd_puissances_023": {
          "difficulte": "1",
          "titre": "Infiniment grand",
          "uuid": "2nd_puissances_023",
          "png": "static/2nde/calculs_numeriques/puissances/png/puissances_023_enonce.png",
          "tex": "static/2nde/calculs_numeriques/puissances/tex/puissances_023_enonce.tex",
          "texReponse": "static/2nde/calculs_numeriques/puissances/tex/puissances_023_reponse.tex",
          "pngReponse": "static/2nde/calculs_numeriques/puissances/png/puissances_023_reponse.png",
          "texIndice": "static/2nde/calculs_numeriques/puissances/tex/puissances_023_indice.tex",
          "pngIndice": "static/2nde/calculs_numeriques/puissances/png/puissances_023_indice.png",
          "texCor": "static/2nde/calculs_numeriques/puissances/tex/puissances_023_solution.tex",
          "pngCor": "static/2nde/calculs_numeriques/puissances/png/puissances_023_solution.png",
          "typeExercice": "static"
        },
        "2nd_puissances_024": {
          "difficulte": "1",
          "titre": "Infiniment petit",
          "uuid": "2nd_puissances_024",
          "png": "static/2nde/calculs_numeriques/puissances/png/puissances_024_enonce.png",
          "tex": "static/2nde/calculs_numeriques/puissances/tex/puissances_024_enonce.tex",
          "texReponse": "static/2nde/calculs_numeriques/puissances/tex/puissances_024_reponse.tex",
          "pngReponse": "static/2nde/calculs_numeriques/puissances/png/puissances_024_reponse.png",
          "texIndice": "static/2nde/calculs_numeriques/puissances/tex/puissances_024_indice.tex",
          "pngIndice": "static/2nde/calculs_numeriques/puissances/png/puissances_024_indice.png",
          "texCor": "static/2nde/calculs_numeriques/puissances/tex/puissances_024_solution.tex",
          "pngCor": "static/2nde/calculs_numeriques/puissances/png/puissances_024_solution.png",
          "typeExercice": "static"
        },
        "2nd_puissances_011": {
          "difficulte": "2",
          "titre": "Enchaînements",
          "uuid": "2nd_puissances_011",
          "png": "static/2nde/calculs_numeriques/puissances/png/puissances_011_enonce.png",
          "tex": "static/2nde/calculs_numeriques/puissances/tex/puissances_011_enonce.tex",
          "texReponse": "static/2nde/calculs_numeriques/puissances/tex/puissances_011_reponse.tex",
          "pngReponse": "static/2nde/calculs_numeriques/puissances/png/puissances_011_reponse.png",
          "texIndice": "static/2nde/calculs_numeriques/puissances/tex/puissances_011_indice.tex",
          "pngIndice": "static/2nde/calculs_numeriques/puissances/png/puissances_011_indice.png",
          "typeExercice": "static"
        },
        "2nd_puissances_025": {
          "difficulte": "2",
          "titre": "Produit de puissances",
          "uuid": "2nd_puissances_025",
          "png": "static/2nde/calculs_numeriques/puissances/png/puissances_025_enonce.png",
          "tex": "static/2nde/calculs_numeriques/puissances/tex/puissances_025_enonce.tex",
          "texReponse": "static/2nde/calculs_numeriques/puissances/tex/puissances_025_reponse.tex",
          "pngReponse": "static/2nde/calculs_numeriques/puissances/png/puissances_025_reponse.png",
          "texIndice": "static/2nde/calculs_numeriques/puissances/tex/puissances_025_indice.tex",
          "pngIndice": "static/2nde/calculs_numeriques/puissances/png/puissances_025_indice.png",
          "texCor": "static/2nde/calculs_numeriques/puissances/tex/puissances_025_solution.tex",
          "pngCor": "static/2nde/calculs_numeriques/puissances/png/puissances_025_solution.png",
          "typeExercice": "static"
        },
        "2nd_puissances_026": {
          "difficulte": "2",
          "titre": "Sujet DNB",
          "uuid": "2nd_puissances_026",
          "png": "static/2nde/calculs_numeriques/puissances/png/puissances_026_enonce.png",
          "tex": "static/2nde/calculs_numeriques/puissances/tex/puissances_026_enonce.tex",
          "texReponse": "static/2nde/calculs_numeriques/puissances/tex/puissances_026_reponse.tex",
          "pngReponse": "static/2nde/calculs_numeriques/puissances/png/puissances_026_reponse.png",
          "texIndice": "static/2nde/calculs_numeriques/puissances/tex/puissances_026_indice.tex",
          "pngIndice": "static/2nde/calculs_numeriques/puissances/png/puissances_026_indice.png",
          "texCor": "static/2nde/calculs_numeriques/puissances/tex/puissances_026_solution.tex",
          "pngCor": "static/2nde/calculs_numeriques/puissances/png/puissances_026_solution.png",
          "typeExercice": "static"
        },
        "2nd_puissances_027": {
          "difficulte": "2",
          "titre": "Sujet DNB",
          "uuid": "2nd_puissances_027",
          "png": "static/2nde/calculs_numeriques/puissances/png/puissances_027_enonce.png",
          "tex": "static/2nde/calculs_numeriques/puissances/tex/puissances_027_enonce.tex",
          "texReponse": "static/2nde/calculs_numeriques/puissances/tex/puissances_027_reponse.tex",
          "pngReponse": "static/2nde/calculs_numeriques/puissances/png/puissances_027_reponse.png",
          "texIndice": "static/2nde/calculs_numeriques/puissances/tex/puissances_027_indice.tex",
          "pngIndice": "static/2nde/calculs_numeriques/puissances/png/puissances_027_indice.png",
          "texCor": "static/2nde/calculs_numeriques/puissances/tex/puissances_027_solution.tex",
          "pngCor": "static/2nde/calculs_numeriques/puissances/png/puissances_027_solution.png",
          "typeExercice": "static"
        },
        "2nd_puissances_029": {
          "difficulte": "2",
          "titre": "Ordre de grandeur",
          "uuid": "2nd_puissances_029",
          "png": "static/2nde/calculs_numeriques/puissances/png/puissances_029_enonce.png",
          "tex": "static/2nde/calculs_numeriques/puissances/tex/puissances_029_enonce.tex",
          "texReponse": "static/2nde/calculs_numeriques/puissances/tex/puissances_029_reponse.tex",
          "pngReponse": "static/2nde/calculs_numeriques/puissances/png/puissances_029_reponse.png",
          "texIndice": "static/2nde/calculs_numeriques/puissances/tex/puissances_029_indice.tex",
          "pngIndice": "static/2nde/calculs_numeriques/puissances/png/puissances_029_indice.png",
          "typeExercice": "static"
        },
        "2nd_puissances_028": {
          "difficulte": "3",
          "titre": "Histoire sans suite",
          "uuid": "2nd_puissances_028",
          "png": "static/2nde/calculs_numeriques/puissances/png/puissances_028_enonce.png",
          "tex": "static/2nde/calculs_numeriques/puissances/tex/puissances_028_enonce.tex",
          "texReponse": "static/2nde/calculs_numeriques/puissances/tex/puissances_028_reponse.tex",
          "pngReponse": "static/2nde/calculs_numeriques/puissances/png/puissances_028_reponse.png",
          "texIndice": "static/2nde/calculs_numeriques/puissances/tex/puissances_028_indice.tex",
          "pngIndice": "static/2nde/calculs_numeriques/puissances/png/puissances_028_indice.png",
          "texCor": "static/2nde/calculs_numeriques/puissances/tex/puissances_028_solution.tex",
          "pngCor": "static/2nde/calculs_numeriques/puissances/png/puissances_028_solution.png",
          "typeExercice": "static"
        }
      }
    }
  }
}