PWD c:/Users/guyon/plan-de-travail-2nde-1/2nde/calcul_litteral/developper_factoriser
INPUT c:/texlive/2023/texmf-var/web2c/luahbtex/lualatex.fmt
INPUT c:/Users/guyon/plan-de-travail-2nde-1/2nde/calcul_litteral/developper_factoriser/developper_factoriser.tex
